<svg xmlns="http://www.w3.org/2000/svg" viewBox="0 0 61.705 53.647">
  <defs>
    <style>
      .cls-1 {
        fill: #fff;
      }
    </style>
  </defs>
  <g id="hom_03" transform="translate(0)">
    <g id="BANK" transform="translate(0 0)">
      <path id="Path_197" data-name="Path 197" class="cls-1" d="M59.288,148.607V136.862a4.01,4.01,0,0,0,3.6-3.993,3.965,3.965,0,0,0-.079-.786,3.859,3.859,0,0,0-.556-1.373H60.39a2.619,2.619,0,0,1,1.006,1.373,2.578,2.578,0,0,1,.12.786,2.637,2.637,0,0,1-2.633,2.633H56.215v1.373h1.717v11.7H56.215v1.373h2.668a2.637,2.637,0,0,1,0,5.27H51.11a2.637,2.637,0,0,1,0-5.27h2.668V148.58H52.143v-11.7h1.634V135.51H51.11a2.637,2.637,0,0,1-2.633-2.64,2.578,2.578,0,0,1,.12-.786A2.619,2.619,0,0,1,49.6,130.71H47.749a3.859,3.859,0,0,0-.556,1.373,3.965,3.965,0,0,0-.079.786,4.007,4.007,0,0,0,3.656,4h0V148.6a4.007,4.007,0,0,0,.343,8h7.766a4.01,4.01,0,0,0,.405-8Z" transform="translate(-44.02 -102.956)"/>
      <path id="Path_198" data-name="Path 198" class="cls-1" d="M117.618,148.607V136.862h0a4.017,4.017,0,0,0,3.6-3.993,3.964,3.964,0,0,0-.079-.786,3.858,3.858,0,0,0-.556-1.373h-1.864a2.64,2.64,0,0,1,1.006,1.373,2.578,2.578,0,0,1,.12.786,2.64,2.64,0,0,1-2.637,2.633h-2.664v1.373h1.717v11.7h-1.717v1.373h2.668a2.637,2.637,0,0,1,0,5.27H109.44a2.637,2.637,0,0,1,0-5.27h2.668V148.58h-1.634v-11.7h1.638V135.51H109.44a2.637,2.637,0,0,1-2.633-2.633,2.578,2.578,0,0,1,.12-.786,2.619,2.619,0,0,1,1.006-1.373h-1.864a3.859,3.859,0,0,0-.556,1.373,3.965,3.965,0,0,0-.079.786,4.01,4.01,0,0,0,3.667,3.989h0V148.6a4.007,4.007,0,0,0,.343,8h7.773a4.01,4.01,0,0,0,.405-8Z" transform="translate(-82.324 -102.956)"/>
      <path id="Path_199" data-name="Path 199" class="cls-1" d="M175.948,148.607V136.862h0a4.017,4.017,0,0,0,3.6-3.993,3.966,3.966,0,0,0-.079-.786,3.924,3.924,0,0,0-.556-1.373h-1.864a2.64,2.64,0,0,1,1.006,1.373,2.578,2.578,0,0,1,.12.786,2.64,2.64,0,0,1-2.637,2.633h-2.668v1.373h1.717v11.7h-1.717v1.373h2.668a2.637,2.637,0,0,1,0,5.27H167.77a2.637,2.637,0,0,1,0-5.27h2.668V148.58H168.8v-11.7h1.638V135.51h-2.668a2.637,2.637,0,0,1-2.637-2.633,2.579,2.579,0,0,1,.12-.786,2.62,2.62,0,0,1,1.006-1.373H164.4a3.86,3.86,0,0,0-.556,1.373,3.967,3.967,0,0,0-.079.786,4.01,4.01,0,0,0,3.667,3.989h0V148.6a4.007,4.007,0,0,0,.343,8h7.773a4.01,4.01,0,0,0,.405-8Z" transform="translate(-120.629 -102.956)"/>
      <path id="Path_200" data-name="Path 200" class="cls-1" d="M74.809,49.87,47.343,65.522,47,65.707v8.943h55.618V65.707Zm26.436,23.418H48.373v-6.77L74.809,51.449l26.436,15.068Z" transform="translate(-43.958 -49.87)"/>
      <path id="Path_201" data-name="Path 201" class="cls-1" d="M117.736,79.74A5.366,5.366,0,1,0,123.1,85.1,5.366,5.366,0,0,0,117.736,79.74Zm0,9.359a3.993,3.993,0,1,1,3.993-3.993A3.993,3.993,0,0,1,117.736,89.1Z" transform="translate(-86.885 -69.485)"/>
      <path id="Path_202" data-name="Path 202" class="cls-1" d="M38.14,118.08V123.8h61.7V118.08Zm60.331,4.343H39.513v-2.97H98.471Z" transform="translate(-38.14 -94.662)"/>
      <rect id="Rectangle_135" data-name="Rectangle 135" class="cls-1" width="60.331" height="1.373" transform="translate(0.683 52.274)"/>
      <path id="Path_203" data-name="Path 203" class="cls-1" d="M81.271,61.78,56.84,75.678V81.8h1.373V76.477L81.271,63.359l23.1,13.118V81.8h1.373V75.678Z" transform="translate(-50.42 -57.691)"/>
    </g>
  </g>
</svg>
