<svg xmlns="http://www.w3.org/2000/svg" viewBox="0 0 53 67">
  <defs>
    <style>
      .cls-1 {
        fill: #00467f;
      }
    </style>
  </defs>
  <g id="Group_428" data-name="Group 428" transform="translate(-126 -481)">
    <rect id="Rectangle_70" data-name="Rectangle 70" class="cls-1" width="53" height="44" transform="translate(126 481)"/>
    <rect id="Rectangle_71" data-name="Rectangle 71" width="53" height="23" transform="translate(126 525)"/>
  </g>
</svg>
