<?xml version="1.0" encoding="utf-8"?>
<!-- Generator: Adobe Illustrator 21.1.0, SVG Export Plug-In . SVG Version: 6.00 Build 0)  -->
<svg version="1.1" id="Capa_1" xmlns="http://www.w3.org/2000/svg" xmlns:xlink="http://www.w3.org/1999/xlink" x="0px" y="0px"
	 viewBox="0 0 27 14" style="enable-background:new 0 0 27 14;" xml:space="preserve">
<style type="text/css">
	.st0{enable-background:new    ;}
	.st1{fill:#017ADD;}
</style>
<g class="st0">
	<path class="st1" d="M5.8,5.1C5.6,4.9,5.4,4.6,5.4,4.2s0.1-0.7,0.4-0.9L7,2.2c0.2-0.2,0.5-0.4,0.9-0.4s0.6,0.1,0.8,0.4l5.1,5.1
		l5.1-5.1c0.2-0.2,0.5-0.4,0.9-0.4s0.7,0.1,0.9,0.4l1.2,1.2c0.2,0.2,0.4,0.5,0.4,0.9s-0.1,0.7-0.4,0.9l-7.2,7.2
		c-0.2,0.2-0.5,0.4-0.9,0.4s-0.7-0.1-0.9-0.4L5.8,5.1z"/>
</g>
</svg>
