<svg xmlns="http://www.w3.org/2000/svg" viewBox="0 0 52.617 52.199">
  <defs>
    <style>
      .cls-1 {
        fill: #fff;
      }
    </style>
  </defs>
  <g id="Group_132" data-name="Group 132" transform="translate(0)">
    <path id="Path_166" data-name="Path 166" class="cls-1" d="M1.638,23.869A.751.751,0,0,0,.869,23.1a.769.769,0,1,0,0,1.538A.825.825,0,0,0,1.638,23.869Z" transform="translate(-0.1 2.296)"/>
    <path id="Path_167" data-name="Path 167" class="cls-1" d="M1.552,29.7A.786.786,0,0,0,1,30.691a.826.826,0,0,0,.769.549h.22A.8.8,0,0,0,1.552,29.7Z" transform="translate(-0.014 2.944)"/>
    <path id="Path_168" data-name="Path 168" class="cls-1" d="M8.773,7.149c.22,0,.33-.11.549-.22a.845.845,0,0,0,.11-1.1.784.784,0,0,0-1.208-.11.845.845,0,0,0-.11,1.1A.949.949,0,0,0,8.773,7.149Z" transform="translate(0.674 0.562)"/>
    <path id="Path_169" data-name="Path 169" class="cls-1" d="M4.03,11.919a.833.833,0,0,0,.439.22.783.783,0,0,0,.659-.33h0a.852.852,0,0,0-.22-1.1.852.852,0,0,0-1.1.22A.715.715,0,0,0,4.03,11.919Z" transform="translate(0.254 1.065)"/>
    <path id="Path_170" data-name="Path 170" class="cls-1" d="M4.03,35.81a.852.852,0,0,0-.22,1.1.949.949,0,0,0,.659.33.66.66,0,0,0,.439-.11.852.852,0,0,0,.22-1.1A.825.825,0,0,0,4.03,35.81Z" transform="translate(0.254 3.537)"/>
    <path id="Path_171" data-name="Path 171" class="cls-1" d="M8.218,40.922a.734.734,0,0,0,.11,1.1.839.839,0,0,0,.549.22,1.561,1.561,0,0,0,.659-.22.734.734,0,0,0-.11-1.1A.862.862,0,0,0,8.218,40.922Z" transform="translate(0.68 4.027)"/>
    <path id="Path_172" data-name="Path 172" class="cls-1" d="M33.343,3.336c.11,0,.22.11.33.11a1.112,1.112,0,0,0,.769-.439A.8.8,0,0,0,34,1.908a.8.8,0,0,0-1.1.439A.771.771,0,0,0,33.343,3.336Z" transform="translate(3.127 0.201)"/>
    <path id="Path_173" data-name="Path 173" class="cls-1" d="M27.159,1.54h.11a.735.735,0,0,0,.769-.659c.11-.439-.22-.769-.659-.879A.7.7,0,0,0,26.5.661C26.5,1.1,26.72,1.54,27.159,1.54Z" transform="translate(2.5 0.019)"/>
    <path id="Path_174" data-name="Path 174" class="cls-1" d="M1.451,18.14h.22a.826.826,0,0,0,.769-.549.786.786,0,0,0-.549-.989.786.786,0,0,0-.989.549A.961.961,0,0,0,1.451,18.14Z" transform="translate(-0.023 1.654)"/>
    <path id="Path_175" data-name="Path 175" class="cls-1" d="M39.263,7.036a1.561,1.561,0,0,0,.659-.22.781.781,0,0,0-1.208-.989.833.833,0,0,0,.11,1.1A1.136,1.136,0,0,0,39.263,7.036Z" transform="translate(3.688 0.565)"/>
    <path id="Path_176" data-name="Path 176" class="cls-1" d="M14.372,3.546a.4.4,0,0,0,.33-.11.9.9,0,0,0,.439-1.1.89.89,0,0,0-1.1-.33.9.9,0,0,0-.439,1.1A.925.925,0,0,0,14.372,3.546Z" transform="translate(1.226 0.21)"/>
    <path id="Path_177" data-name="Path 177" class="cls-1" d="M20.671,1.648h.11c.439-.11.769-.439.659-.879A.778.778,0,0,0,20.561,0h0c-.439.11-.769.439-.659.879A.825.825,0,0,0,20.671,1.648Z" transform="translate(1.848 0.021)"/>
    <path id="Path_178" data-name="Path 178" class="cls-1" d="M14.806,44.308a.837.837,0,0,0-.659,1.538c.11,0,.22.11.33.11a1.112,1.112,0,0,0,.769-.439A1.14,1.14,0,0,0,14.806,44.308Z" transform="translate(1.232 4.376)"/>
    <path id="Path_179" data-name="Path 179" class="cls-1" d="M44.109,35.71a.792.792,0,1,0-.879,1.318.66.66,0,0,0,.439.11.783.783,0,0,0,.659-.33A.875.875,0,0,0,44.109,35.71Z" transform="translate(4.115 3.527)"/>
    <path id="Path_180" data-name="Path 180" class="cls-1" d="M46.371,18.04h.22a.786.786,0,0,0,.549-.989h0a.8.8,0,0,0-1.538.439A1.027,1.027,0,0,0,46.371,18.04Z" transform="translate(4.378 1.644)"/>
    <path id="Path_181" data-name="Path 181" class="cls-1" d="M46.591,29.6a.8.8,0,0,0-.439,1.538h.22a.826.826,0,0,0,.769-.549A.786.786,0,0,0,46.591,29.6Z" transform="translate(4.378 2.934)"/>
    <path id="Path_182" data-name="Path 182" class="cls-1" d="M43.569,11.938a.66.66,0,0,0,.439-.11.792.792,0,1,0-1.1-.22A.949.949,0,0,0,43.569,11.938Z" transform="translate(4.105 1.045)"/>
    <path id="Path_183" data-name="Path 183" class="cls-1" d="M47.369,23a.751.751,0,0,0-.769.769v.11h0a.769.769,0,1,0,1.538,0h0v-.11A.751.751,0,0,0,47.369,23Z" transform="translate(4.479 2.286)"/>
    <path id="Path_184" data-name="Path 184" class="cls-1" d="M38.824,40.819a.845.845,0,0,0-.11,1.1c.11.22.33.22.659.22.22,0,.33-.11.549-.22a.845.845,0,0,0,.11-1.1C39.593,40.6,39.153,40.489,38.824,40.819Z" transform="translate(3.688 4.021)"/>
    <path id="Path_185" data-name="Path 185" class="cls-1" d="M20.881,46.1a.777.777,0,1,0-.22,1.538h.11a.735.735,0,0,0,.769-.659C21.65,46.541,21.32,46.212,20.881,46.1Z" transform="translate(1.858 4.559)"/>
    <path id="Path_186" data-name="Path 186" class="cls-1" d="M27.261,46.1c-.439.11-.769.439-.659.879a.726.726,0,0,0,.769.659h.11c.439-.11.769-.439.659-.879A.7.7,0,0,0,27.261,46.1Z" transform="translate(2.508 4.559)"/>
    <path id="Path_187" data-name="Path 187" class="cls-1" d="M33.443,44.308a.9.9,0,0,0-.439,1.1.735.735,0,0,0,.769.439.4.4,0,0,0,.33-.11.9.9,0,0,0,.439-1.1A.89.89,0,0,0,33.443,44.308Z" transform="translate(3.136 4.376)"/>
    <path id="Path_188" data-name="Path 188" class="cls-1" d="M40.417,26.959a12.557,12.557,0,0,0,1.538-5.932,9.229,9.229,0,0,0-16.477-5.712A9.229,9.229,0,0,0,9,21.027C9,31.243,24.379,40.8,25.038,41.239c.11.11.22.11.439.11s.33,0,.439-.11a38.359,38.359,0,0,0,5.053-3.625,6.97,6.97,0,0,0,5.163,2.2,7.14,7.14,0,0,0,4.284-12.852ZM25.477,39.592c-2.417-1.538-14.939-10.106-14.939-18.564a7.712,7.712,0,0,1,7.689-7.689,7.837,7.837,0,0,1,6.591,3.735.938.938,0,0,0,1.428,0,7.564,7.564,0,0,1,6.591-3.735,7.712,7.712,0,0,1,7.689,7.689,11.921,11.921,0,0,1-1.318,5.053,6.409,6.409,0,0,0-2.856-.659,7.126,7.126,0,0,0-7.14,7.14,6.643,6.643,0,0,0,.989,3.625C27.894,37.944,26.246,39.042,25.477,39.592Zm10.655-1.318a5.6,5.6,0,1,1,5.6-5.6A5.626,5.626,0,0,1,36.132,38.273Z" transform="translate(0.776 1.183)"/>
    <path id="Path_189" data-name="Path 189" class="cls-1" d="M36.761,30.346H34.784V28.369a.769.769,0,0,0-1.538,0v1.977H31.269a.769.769,0,1,0,0,1.538h1.977v1.977a.769.769,0,1,0,1.538,0V31.884h1.977a.769.769,0,1,0,0-1.538Z" transform="translate(2.894 2.739)"/>
  </g>
</svg>
