<?xml version="1.0" encoding="utf-8"?>
<!-- Generator: Adobe Illustrator 21.1.0, SVG Export Plug-In . SVG Version: 6.00 Build 0)  -->
<svg version="1.1" id="Capa_1" xmlns="http://www.w3.org/2000/svg" xmlns:xlink="http://www.w3.org/1999/xlink" x="0px" y="0px"
	 viewBox="0 0 50 50" style="enable-background:new 0 0 50 50;" xml:space="preserve">
<style type="text/css">
	.st0{fill:none;}
	.st1{fill:#FFFFFF;}
	.st2{enable-background:new    ;}
</style>
<g id="Group_183" transform="translate(-945 -323)">
	<g id="_" transform="translate(1024 669) rotate(180)">
		<g id="Rectangle_4" transform="translate(29 296)">
			<g>
				<rect class="st0" width="50" height="50"/>
			</g>
			<g>
				<path class="st1" d="M0,0h50v50H0V0z M48,2H2v46h46V2z"/>
			</g>
		</g>
		<g class="st2">
			<path class="st1" d="M55.7,312.9c0.2-0.2,0.5-0.3,0.8-0.3s0.6,0.1,0.8,0.3l1.1,1.1c0.2,0.2,0.3,0.5,0.3,0.8s-0.1,0.6-0.3,0.8
				l-4.7,4.7l4.7,4.7c0.2,0.2,0.3,0.5,0.3,0.8s-0.1,0.6-0.3,0.8l-1.1,1.1c-0.2,0.2-0.5,0.3-0.8,0.3s-0.6-0.1-0.8-0.3l-6.6-6.6
				c-0.2-0.2-0.3-0.5-0.3-0.8s0.1-0.6,0.3-0.8L55.7,312.9z"/>
		</g>
	</g>
</g>
</svg>
