<?xml version="1.0" encoding="utf-8"?>
<!-- Generator: Adobe Illustrator 21.1.0, SVG Export Plug-In . SVG Version: 6.00 Build 0)  -->
<svg version="1.1" id="Capa_1" xmlns="http://www.w3.org/2000/svg" xmlns:xlink="http://www.w3.org/1999/xlink" x="0px" y="0px"
	 viewBox="0 0 41 42" style="enable-background:new 0 0 41 42;" xml:space="preserve">
<style type="text/css">
	.st0{fill:#FFFFFF;}
	.st1{fill:#E8E8E8;}
	.st2{enable-background:new    ;}
	.st3{fill:#424242;}
</style>
<g id="Group_433" transform="translate(-326 -972)">
	<g id="Rectangle_104" transform="translate(326 972)">
		<g>
			<rect class="st0" width="41" height="42"/>
		</g>
		<g>
			<path class="st1" d="M41,42H0V0h41V42z M2,40h37V2H2V40z"/>
		</g>
	</g>
	<g class="st2">
		<path class="st3" d="M344.8,998.8c-0.1,0.1-0.3,0.2-0.5,0.2s-0.4-0.1-0.5-0.2l-0.7-0.7c-0.1-0.1-0.2-0.3-0.2-0.5s0.1-0.4,0.2-0.5
			l3-3l-3-3c-0.1-0.1-0.2-0.3-0.2-0.5s0.1-0.4,0.2-0.5l0.7-0.7c0.1-0.1,0.3-0.2,0.5-0.2s0.4,0.1,0.5,0.2l4.2,4.2
			c0.1,0.1,0.2,0.3,0.2,0.5s-0.1,0.4-0.2,0.5L344.8,998.8z"/>
	</g>
</g>
</svg>
