<?xml version="1.0" encoding="utf-8"?>
<!-- Generator: Adobe Illustrator 21.1.0, SVG Export Plug-In . SVG Version: 6.00 Build 0)  -->
<svg version="1.1" id="Capa_1" xmlns="http://www.w3.org/2000/svg" xmlns:xlink="http://www.w3.org/1999/xlink" x="0px" y="0px"
	 viewBox="0 0 14 13" style="enable-background:new 0 0 14 13;" xml:space="preserve">
<style type="text/css">
	.st0{enable-background:new    ;}
	.st1{fill:#00467F;}
</style>
<g class="st0">
	<path class="st1" d="M12.6,1.1c0.1,0,0.2,0.1,0.3,0.2S13,1.5,13,1.6c0,2-0.5,3.8-1.5,5.5c-1,1.6-2.3,2.9-3.9,3.9
		c-1.7,1-3.5,1.5-5.5,1.5c-0.1,0-0.2,0-0.4-0.1s-0.2-0.2-0.2-0.3L1,9.6c0-0.1,0-0.2,0-0.4S1.2,9,1.4,9L4,7.9c0.1,0,0.2-0.1,0.4,0
		S4.6,7.9,4.6,8l1.1,1.4c0.9-0.4,1.7-1,2.4-1.7s1.3-1.5,1.7-2.4L8.5,4.1C8.4,4,8.4,3.9,8.3,3.8s0-0.2,0-0.4l1.1-2.6
		c0-0.1,0.1-0.2,0.3-0.3s0.2-0.1,0.4,0L12.6,1.1z"/>
</g>
</svg>
